Decision Tree Analysis
…
##Loading the Data

diabetis = read_csv("Diabete_data_1.csv")
diabetis$Insulin <- NULL
diabetis

## # A tibble: 768 × 8
##    Pregnancies Glucose Blood_Pressure Skin_Thickness   BMI
##          <dbl>   <dbl>          <dbl>          <dbl> <dbl>
##  1           6     148             72             35  33.6
##  2           1      85             66             29  26.6
##  3           8     183             64             NA  23.3
##  4           1      89             66             23  28.1
##  5           0     137             40             35  43.1
##  6           5     116             74             NA  25.6
##  7           3      78             50             32  31  
##  8          10     115             NA             NA  35.3
##  9           2     197             70             45  30.5
## 10           8     125             96             NA  NA  
## # ℹ 758 more rows
## # ℹ 3 more variables: Diabetes_Pedigree_Function <dbl>, Age <dbl>,
## #   Outcome <dbl>
…
## [1] 278

# Removin NA in the Dataset
attach(diabetis)
diabetis_cln <- diabetis %>% drop_na(Pregnancies, 
                                     Glucose, 
                                     Blood_Pressure, 
                                     Skin_Thickness, 
                                     BMI,
                                     Age,
                                     Outcome)

diabetis_cln

## # A tibble: 532 × 8
##    Pregnancies Glucose Blood_Pressure Skin_Thickness   BMI
##          <dbl>   <dbl>          <dbl>          <dbl> <dbl>
##  1           6     148             72             35  33.6
##  2           1      85             66             29  26.6
##  3           1      89             66             23  28.1
##  4           0     137             40             35  43.1
##  5           3      78             50             32  31  
##  6           2     197             70             45  30.5
##  7           1     189             60             23  30.1
##  8           5     166             72             19  25.8
##  9           0     118             84             47  45.8
## 10           1     103             30             38  43.3
## # ℹ 522 more rows
## # ℹ 3 more variables: Diabetes_Pedigree_Function <dbl>, Age <dbl>,
## #   Outcome <dbl>
…
